fifo_tb.vcd
$date
Sun May 17 02:28:12 2026
$end
$version
Riviera-PRO Version 2025.04.139.9738
$end
$timescale
1 ps
$end

$scope module fifo_tb_top $end
$var reg 1 ! clk $end

$scope module dut_if $end
$var reg 1 " rst_n $end
$var reg 1 # wr_en $end
$var reg 1 $ rd_en $end
$var reg 8 % wr_data [7:0] $end
$var reg 8 & rd_data [7:0] $end
$var reg 1 ' full $end
$var reg 1 ( empty $end
$var reg 1 ) almost_full $end
$var reg 1 * almost_empty $end
$var reg 5 + count [4:0] $end
$var reg 1 , rst_n $end
$var reg 1 - wr_en $end
$var reg 1 . rd_en $end
$var reg 8 / wr_data [7:0] $end
$var reg 1 0 rst_n $end
$var reg 1 1 wr_en $end
$var reg 1 2 rd_en $end
$var reg 8 3 wr_data [7:0] $end
$var reg 8 4 rd_data [7:0] $end
$var reg 1 5 full $end
$var reg 1 6 empty $end
$var reg 1 7 almost_full $end
$var reg 1 8 almost_empty $end
$var reg 5 9 count [4:0] $end
$var parameter 32 : DATA_WIDTH [31:0] $end
$var parameter 32 ; DEPTH [31:0] $end
$var parameter 32 < ADDR_WIDTH [31:0] $end
$upscope $end


$scope module dut $end
$var wire 1 = clk $end
$var wire 1 > rst_n $end
$var wire 1 ? wr_en $end
$var wire 1 @ rd_en $end
$var wire 8 A wr_data [7:0] $end
$var wire 1 B wr_valid $end
$var wire 1 C rd_valid $end
$var reg 8 D rd_data [7:0] $end
$var reg 1 E full $end
$var reg 1 F empty $end
$var reg 1 G almost_full $end
$var reg 1 H almost_empty $end
$var reg 5 I count [4:0] $end
$var reg 4 J wr_ptr [3:0] $end
$var reg 4 K rd_ptr [3:0] $end
$var parameter 32 L DATA_WIDTH [31:0] $end
$var parameter 32 M DEPTH [31:0] $end
$var parameter 32 N ADDR_WIDTH [31:0] $end
$upscope $end

$upscope $end

$enddefinitions $end
$dumpvars
0!
0"
0#
0$
b0 %
bx &
x'
x(
x)
x*
bx +
0,
0-
0.
b0 /
x0
x1
x2
bx 3
bx 4
x5
x6
x7
x8
bx 9
b1000 :
b10000 ;
b100 <
0=
0>
0?
0@
b0 A
0B
0C
bx D
xE
xF
xG
xH
bx I
bx J
bx K
b1000 L
b10000 M
b100 N
$end
#5000
1!
1=
b0 J
b0 K
b0 D
b0 I
b0 &
b0 +
0E
1F
0G
0H
0'
1(
0)
0*
b0 3
02
01
00
b0 /
#10000
0!
0=
#15000
1!
1=
b0 9
08
07
16
05
b0 4
b0 /
#20000
0!
0=
#25000
1!
1=
b0 /
#30000
0!
0=
#35000
1!
1=
b0 /
#40000
0!
0=
#45000
1!
1=
1,
b0 /
#46000
1"
1>
#50000
0!
0=
#55000
1!
1=
10
b0 /
#60000
0!
0=
#65000
1!
1=
1-
b0 /
#66000
1#
1?
1B
#70000
0!
0=
#75000
1!
1=
b1 J
b1 I
b1 +
0F
1H
0(
1*
11
b1 /
#76000
b1 %
b1 A
#80000
0!
0=
#85000
1!
1=
b10 J
b10 I
b10 +
0H
0*
b1 9
18
06
b1 3
b10 /
#86000
b10 %
b10 A
#90000
0!
0=
#95000
1!
1=
b11 J
b11 I
b11 +
b10 9
08
b10 3
b11 /
#96000
b11 %
b11 A
#100000
0!
0=
#105000
1!
1=
b100 J
b100 I
b100 +
b11 9
b11 3
b100 /
#106000
b100 %
b100 A
#110000
0!
0=
#115000
1!
1=
b101 J
b101 I
b101 +
b100 9
b100 3
b101 /
#116000
b101 %
b101 A
#120000
0!
0=
#125000
1!
1=
b110 J
b110 I
b110 +
b101 9
b101 3
b110 /
#126000
b110 %
b110 A
#130000
0!
0=
#135000
1!
1=
b111 J
b111 I
b111 +
b110 9
b110 3
b111 /
#136000
b111 %
b111 A
#140000
0!
0=
#145000
1!
1=
b1000 J
b1000 I
b1000 +
b111 9
b111 3
b1000 /
#146000
b1000 %
b1000 A
#150000
0!
0=
#155000
1!
1=
b1001 J
b1001 I
b1001 +
b1000 9
b1000 3
b1001 /
#156000
b1001 %
b1001 A
#160000
0!
0=
#165000
1!
1=
b1010 J
b1010 I
b1010 +
b1001 9
b1001 3
b1010 /
#166000
b1010 %
b1010 A
#170000
0!
0=
#175000
1!
1=
b1011 J
b1011 I
b1011 +
b1010 9
b1010 3
b1011 /
#176000
b1011 %
b1011 A
#180000
0!
0=
#185000
1!
1=
b1100 J
b1100 I
b1100 +
b1011 9
b1011 3
b1100 /
#186000
b1100 %
b1100 A
#190000
0!
0=
#195000
1!
1=
b1101 J
b1101 I
b1101 +
b1100 9
b1100 3
b1101 /
#196000
b1101 %
b1101 A
#200000
0!
0=
#205000
1!
1=
b1110 J
b1110 I
b1110 +
b1101 9
b1101 3
b1110 /
#206000
b1110 %
b1110 A
#210000
0!
0=
#215000
1!
1=
b1111 J
b1111 I
b1111 +
1G
1)
b1110 9
b1110 3
b1111 /
#216000
b1111 %
b1111 A
#220000
0!
0=
#225000
1!
1=
b0 J
b10000 I
b10000 +
1E
0G
1'
0)
0B
b1111 9
17
b1111 3
b11111111 /
#226000
b11111111 %
b11111111 A
#230000
0!
0=
#235000
1!
1=
b10000 9
07
15
b11111111 3
0-
1.
b0 /
#236000
b0 %
1$
0#
0?
1@
b0 A
1C
#240000
0!
0=
#245000
1!
1=
b1 K
b1111 I
b1111 +
0E
1G
0'
1)
b0 3
12
01
b0 /
#250000
0!
0=
#255000
1!
1=
b1 D
b10 K
b1110 I
b1 &
b1110 +
0G
0)
b1111 9
17
05
b0 /
#260000
0!
0=
#265000
1!
1=
b10 D
b11 K
b1101 I
b10 &
b1101 +
b1110 9
07
b1 4
b0 /
#270000
0!
0=
#275000
1!
1=
b11 D
b100 K
b1100 I
b11 &
b1100 +
b1101 9
b10 4
b0 /
#280000
0!
0=
#285000
1!
1=
b100 D
b101 K
b1011 I
b100 &
b1011 +
b1100 9
b11 4
b0 /
#290000
0!
0=
#295000
1!
1=
b101 D
b110 K
b1010 I
b101 &
b1010 +
b1011 9
b100 4
b0 /
#300000
0!
0=
#305000
1!
1=
b110 D
b111 K
b1001 I
b110 &
b1001 +
b1010 9
b101 4
b0 /
#310000
0!
0=
#315000
1!
1=
b111 D
b1000 K
b1000 I
b111 &
b1000 +
b1001 9
b110 4
b0 /
#320000
0!
0=
#325000
1!
1=
b1000 D
b1001 K
b111 I
b1000 &
b111 +
b1000 9
b111 4
b0 /
#330000
0!
0=
#335000
1!
1=
b1001 D
b1010 K
b110 I
b1001 &
b110 +
b111 9
b1000 4
b0 /
#340000
0!
0=
#345000
1!
1=
b1010 D
b1011 K
b101 I
b1010 &
b101 +
b110 9
b1001 4
b0 /
#350000
0!
0=
#355000
1!
1=
b1011 D
b1100 K
b100 I
b1011 &
b100 +
b101 9
b1010 4
b0 /
#360000
0!
0=
#365000
1!
1=
b1100 D
b1101 K
b11 I
b1100 &
b11 +
b100 9
b1011 4
b0 /
#370000
0!
0=
#375000
1!
1=
b1101 D
b1110 K
b10 I
b1101 &
b10 +
b11 9
b1100 4
b0 /
#380000
0!
0=
#385000
1!
1=
b1110 D
b1111 K
b1 I
b1110 &
b1 +
1H
1*
b10 9
b1101 4
b0 /
#390000
0!
0=
#395000
1!
1=
b1111 D
b0 K
b0 I
b1111 &
b0 +
1F
0H
1(
0*
0C
b1 9
18
b1110 4
b0 /
#400000
0!
0=
#405000
1!
1=
b0 9
08
16
b1111 4
1-
0.
b1110000 /
#406000
b1110000 %
0$
1#
1?
0@
b1110000 A
1B
#410000
0!
0=
#415000
1!
1=
b1 J
b1 I
b1 +
0F
1H
0(
1*
b1110000 3
02
11
b110011 /
#416000
b110011 %
b110011 A
#420000
0!
0=
#425000
1!
1=
b10 J
b10 I
b10 +
0H
0*
b1 9
18
06
b110011 3
b1011111 /
#426000
b1011111 %
b1011111 A
#430000
0!
0=
#435000
1!
1=
b11 J
b11 I
b11 +
b10 9
08
b1011111 3
b11010010 /
#436000
b11010010 %
b11010010 A
#440000
0!
0=
#445000
1!
1=
b100 J
b100 I
b100 +
b11 9
b11010010 3
b11101 /
#446000
b11101 %
b11101 A
#450000
0!
0=
#455000
1!
1=
b101 J
b101 I
b101 +
b100 9
b11101 3
b10111001 /
#456000
b10111001 %
b10111001 A
#460000
0!
0=
#465000
1!
1=
b110 J
b110 I
b110 +
b101 9
b10111001 3
b1110111 /
#466000
b1110111 %
b1110111 A
#470000
0!
0=
#475000
1!
1=
b111 J
b111 I
b111 +
b110 9
b1110111 3
b11010 /
#476000
b11010 %
b11010 A
#480000
0!
0=
#485000
1!
1=
b1000 J
b1000 I
b1000 +
b111 9
b11010 3
1.
b10101101 /
#486000
b10101101 %
1$
1@
b10101101 A
1C
#490000
0!
0=
#495000
1!
1=
b1001 J
b1110000 D
b1 K
b1110000 &
b1000 9
b10101101 3
12
b11111 /
#496000
b11111 %
b11111 A
#500000
0!
0=
#505000
1!
1=
b1010 J
b110011 D
b10 K
b110011 &
b1110000 4
b11111 3
b11111110 /
#506000
b11111110 %
b11111110 A
#510000
0!
0=
#515000
1!
1=
b1011 J
b1011111 D
b11 K
b1011111 &
b110011 4
b11111110 3
b11001011 /
#516000
b11001011 %
b11001011 A
#520000
0!
0=
#525000
1!
1=
b1100 J
b11010010 D
b100 K
b11010010 &
b1011111 4
b11001011 3
b11000011 /
#526000
b11000011 %
b11000011 A
#530000
0!
0=
#535000
1!
1=
b1101 J
b11101 D
b101 K
b11101 &
b11010010 4
b11000011 3
b11011101 /
#536000
b11011101 %
b11011101 A
#540000
0!
0=
#545000
1!
1=
b1110 J
b10111001 D
b110 K
b10111001 &
b11101 4
b11011101 3
b11011000 /
#546000
b11011000 %
b11011000 A
#550000
0!
0=
#555000
1!
1=
b1111 J
b1110111 D
b111 K
b1110111 &
b10111001 4
b11011000 3
b1111111 /
#556000
b1111111 %
b1111111 A
#560000
0!
0=
#565000
1!
1=
b0 J
b11010 D
b1000 K
b11010 &
b1110111 4
b1111111 3
b10001010 /
#566000
b10001010 %
b10001010 A
#570000
0!
0=
#575000
1!
1=
b1 J
b10101101 D
b1001 K
b10101101 &
b11010 4
b10001010 3
b10100001 /
#576000
b10100001 %
b10100001 A
#580000
0!
0=
#585000
1!
1=
b10 J
b11111 D
b1010 K
b11111 &
b10101101 4
b10100001 3
b1000011 /
#586000
b1000011 %
b1000011 A
#590000
0!
0=
#595000
1!
1=
b11 J
b11111110 D
b1011 K
b11111110 &
b11111 4
b1000011 3
b1010011 /
#596000
b1010011 %
b1010011 A
#600000
0!
0=
#605000
1!
1=
b100 J
b11001011 D
b1100 K
b11001011 &
b11111110 4
b1010011 3
b10101011 /
#606000
b10101011 %
b10101011 A
#610000
0!
0=
#615000
1!
1=
b101 J
b11000011 D
b1101 K
b11000011 &
b11001011 4
b10101011 3
b1111100 /
#616000
b1111100 %
b1111100 A
#620000
0!
0=
#625000
1!
1=
b110 J
b11011101 D
b1110 K
b11011101 &
b11000011 4
b1111100 3
b11110101 /
#626000
b11110101 %
b11110101 A
#630000
0!
0=
#635000
1!
1=
b111 J
b11011000 D
b1111 K
b11011000 &
b11011101 4
b11110101 3
b10110110 /
#636000
b10110110 %
b10110110 A
#640000
0!
0=
#645000
1!
1=
b1000 J
b1111111 D
b0 K
b1111111 &
b11011000 4
b10110110 3
0-
b0 /
#646000
b0 %
0#
0?
b0 A
0B
#650000
0!
0=
#655000
1!
1=
b10001010 D
b1 K
b111 I
b10001010 &
b111 +
b1111111 4
b0 3
01
b0 /
#660000
0!
0=
#665000
1!
1=
b10100001 D
b10 K
b110 I
b10100001 &
b110 +
b111 9
b10001010 4
b0 /
#670000
0!
0=
#675000
1!
1=
b1000011 D
b11 K
b101 I
b1000011 &
b101 +
b110 9
b10100001 4
b0 /
#680000
0!
0=
#685000
1!
1=
b1010011 D
b100 K
b100 I
b1010011 &
b100 +
b101 9
b1000011 4
b0 /
#690000
0!
0=
#695000
1!
1=
b10101011 D
b101 K
b11 I
b10101011 &
b11 +
b100 9
b1010011 4
b0 /
#700000
0!
0=
#705000
1!
1=
b1111100 D
b110 K
b10 I
b1111100 &
b10 +
b11 9
b10101011 4
b0 /
#710000
0!
0=
#715000
1!
1=
b11110101 D
b111 K
b1 I
b11110101 &
b1 +
1H
1*
b10 9
b1111100 4
b0 /
#720000
0!
0=
#725000
1!
1=
b10110110 D
b1000 K
b0 I
b10110110 &
b0 +
1F
0H
1(
0*
0C
b1 9
18
b11110101 4
b0 /
#730000
0!
0=
#735000
1!
1=
b0 9
08
16
b10110110 4
b0 /
#740000
0!
0=
#745000
1!
1=
b0 /
#750000
0!
0=
#755000
1!
1=
b0 /
#760000
0!
0=
#765000
1!
1=
b0 /
#770000
0!
0=
#775000
1!
1=
b0 /
#780000
0!
0=
#785000
1!
1=
b0 /
#790000
0!
0=
#795000
1!
1=
b0 /
#800000
0!
0=
#805000
1!
1=
1-
0.
b0 /
#806000
0$
1#
1?
0@
1B
#810000
0!
0=
#815000
1!
1=
b1001 J
b1 I
b1 +
0F
1H
0(
1*
02
11
b11111111 /
#816000
b11111111 %
b11111111 A
#820000
0!
0=
#825000
1!
1=
b1010 J
b10 I
b10 +
0H
0*
b1 9
18
06
b11111111 3
0-
1.
b0 /
#826000
b0 %
1$
0#
0?
1@
b0 A
1C
0B
#830000
0!
0=
#835000
1!
1=
b0 D
b1001 K
b1 I
b0 &
b1 +
1H
1*
b10 9
08
b0 3
12
01
b0 /
#840000
0!
0=
#845000
1!
1=
b11111111 D
b1010 K
b0 I
b11111111 &
b0 +
1F
0H
1(
0*
0C
b1 9
18
b0 4
1-
0.
b0 /
#846000
0$
1#
1?
0@
1B
#850000
0!
0=
#855000
1!
1=
b1011 J
b1 I
b1 +
0F
1H
0(
1*
b0 9
08
16
b11111111 4
02
11
b1 /
#856000
b1 %
b1 A
#860000
0!
0=
#865000
1!
1=
b1100 J
b10 I
b10 +
0H
0*
b1 9
18
06
b1 3
b10 /
#866000
b10 %
b10 A
#870000
0!
0=
#875000
1!
1=
b1101 J
b11 I
b11 +
b10 9
08
b10 3
b11 /
#876000
b11 %
b11 A
#880000
0!
0=
#885000
1!
1=
b1110 J
b100 I
b100 +
b11 9
b11 3
b100 /
#886000
b100 %
b100 A
#890000
0!
0=
#895000
1!
1=
b1111 J
b101 I
b101 +
b100 9
b100 3
b101 /
#896000
b101 %
b101 A
#900000
0!
0=
#905000
1!
1=
b0 J
b110 I
b110 +
b101 9
b101 3
b110 /
#906000
b110 %
b110 A
#910000
0!
0=
#915000
1!
1=
b1 J
b111 I
b111 +
b110 9
b110 3
b111 /
#916000
b111 %
b111 A
#920000
0!
0=
#925000
1!
1=
b10 J
b1000 I
b1000 +
b111 9
b111 3
b1000 /
#926000
b1000 %
b1000 A
#930000
0!
0=
#935000
1!
1=
b11 J
b1001 I
b1001 +
b1000 9
b1000 3
b1001 /
#936000
b1001 %
b1001 A
#940000
0!
0=
#945000
1!
1=
b100 J
b1010 I
b1010 +
b1001 9
b1001 3
b1010 /
#946000
b1010 %
b1010 A
#950000
0!
0=
#955000
1!
1=
b101 J
b1011 I
b1011 +
b1010 9
b1010 3
b1011 /
#956000
b1011 %
b1011 A
#960000
0!
0=
#965000
1!
1=
b110 J
b1100 I
b1100 +
b1011 9
b1011 3
b1100 /
#966000
b1100 %
b1100 A
#970000
0!
0=
#975000
1!
1=
b111 J
b1101 I
b1101 +
b1100 9
b1100 3
b1101 /
#976000
b1101 %
b1101 A
#980000
0!
0=
#985000
1!
1=
b1000 J
b1110 I
b1110 +
b1101 9
b1101 3
b1110 /
#986000
b1110 %
b1110 A
#990000
0!
0=
#995000
1!
1=
b1001 J
b1111 I
b1111 +
1G
1)
b1110 9
b1110 3
b1111 /
#996000
b1111 %
b1111 A
#1000000
0!
0=
#1005000
1!
1=
b1010 J
b10000 I
b10000 +
1E
0G
1'
0)
0B
b1111 9
17
b1111 3
0-
b0 /
#1006000
b0 %
0#
0?
b0 A
#1010000
0!
0=
#1015000
1!
1=
b10000 9
07
15
b0 3
01
b0 /
#1020000
0!
0=
#1025000
1!
1=
b0 /
#1030000
0!
0=
#1035000
1!
1=
1.
b0 /
#1036000
1$
1@
1C
#1040000
0!
0=
#1045000
1!
1=
b0 D
b1011 K
b1111 I
b0 &
b1111 +
0E
1G
0'
1)
12
b0 /
#1050000
0!
0=
#1055000
1!
1=
b1 D
b1100 K
b1110 I
b1 &
b1110 +
0G
0)
b1111 9
17
05
b0 4
b0 /
#1060000
0!
0=
#1065000
1!
1=
b10 D
b1101 K
b1101 I
b10 &
b1101 +
b1110 9
07
b1 4
b0 /
#1070000
0!
0=
#1075000
1!
1=
b11 D
b1110 K
b1100 I
b11 &
b1100 +
b1101 9
b10 4
b0 /
#1080000
0!
0=
#1085000
1!
1=
b100 D
b1111 K
b1011 I
b100 &
b1011 +
b1100 9
b11 4
b0 /
#1090000
0!
0=
#1095000
1!
1=
b101 D
b0 K
b1010 I
b101 &
b1010 +
b1011 9
b100 4
b0 /
#1100000
0!
0=
#1105000
1!
1=
b110 D
b1 K
b1001 I
b110 &
b1001 +
b1010 9
b101 4
b0 /
#1110000
0!
0=
#1115000
1!
1=
b111 D
b10 K
b1000 I
b111 &
b1000 +
b1001 9
b110 4
b0 /
#1120000
0!
0=
#1125000
1!
1=
b1000 D
b11 K
b111 I
b1000 &
b111 +
b1000 9
b111 4
b0 /
#1130000
0!
0=
#1135000
1!
1=
b1001 D
b100 K
b110 I
b1001 &
b110 +
b111 9
b1000 4
b0 /
#1140000
0!
0=
#1145000
1!
1=
b1010 D
b101 K
b101 I
b1010 &
b101 +
b110 9
b1001 4
b0 /
#1150000
0!
0=
#1155000
1!
1=
b1011 D
b110 K
b100 I
b1011 &
b100 +
b101 9
b1010 4
b0 /
#1160000
0!
0=
#1165000
1!
1=
b1100 D
b111 K
b11 I
b1100 &
b11 +
b100 9
b1011 4
b0 /
#1170000
0!
0=
#1175000
1!
1=
b1101 D
b1000 K
b10 I
b1101 &
b10 +
b11 9
b1100 4
b0 /
#1180000
0!
0=
#1185000
1!
1=
b1110 D
b1001 K
b1 I
b1110 &
b1 +
1H
1*
b10 9
b1101 4
b0 /
#1190000
0!
0=
#1195000
1!
1=
b1111 D
b1010 K
b0 I
b1111 &
b0 +
1F
0H
1(
0*
0C
b1 9
18
b1110 4
0.
b0 /
#1196000
0$
0@
#1200000
0!
0=
#1205000
1!
1=
b0 9
08
16
b1111 4
02
b0 /
#1210000
0!
0=
#1215000
1!
1=
b0 /
#1220000
0!
0=
#1225000
1!
1=
1-
b10100001 /
#1226000
b10100001 %
1#
1?
b10100001 A
1B
#1230000
0!
0=
#1235000
1!
1=
b1011 J
b1 I
b1 +
0F
1H
0(
1*
b10100001 3
11
0-
1.
b0 /
#1236000
b0 %
1$
0#
0?
1@
b0 A
1C
0B
#1240000
0!
0=
#1245000
1!
1=
b10100001 D
b1011 K
b0 I
b10100001 &
b0 +
1F
0H
1(
0*
0C
b1 9
18
06
b0 3
12
01
1-
b10110010 /
#1246000
b10110010 %
1#
1?
b10110010 A
1B
#1250000
0!
0=
#1255000
1!
1=
b1100 J
b1 I
b1 +
0F
1H
0(
1*
1C
b0 9
08
16
b10100001 4
b10110010 3
11
0-
b0 /
#1256000
b0 %
0#
0?
b0 A
0B
#1260000
0!
0=
#1265000
1!
1=
b10110010 D
b1100 K
b0 I
b10110010 &
b0 +
1F
0H
1(
0*
0C
b1 9
18
06
b0 3
01
1-
0.
b0 /
#1266000
0$
1#
1?
0@
1B
#1270000
0!
0=
#1275000
1!
1=
b1101 J
b1 I
b1 +
0F
1H
0(
1*
b0 9
08
16
b10110010 4
02
11
b1 /
#1276000
b1 %
b1 A
#1280000
0!
0=
#1285000
1!
1=
b1110 J
b10 I
b10 +
0H
0*
b1 9
18
06
b1 3
b10 /
#1286000
b10 %
b10 A
#1290000
0!
0=
#1295000
1!
1=
b1111 J
b11 I
b11 +
b10 9
08
b10 3
b11 /
#1296000
b11 %
b11 A
#1300000
0!
0=
#1305000
1!
1=
b0 J
b100 I
b100 +
b11 9
b11 3
b100 /
#1306000
b100 %
b100 A
#1310000
0!
0=
#1315000
1!
1=
b1 J
b101 I
b101 +
b100 9
b100 3
b101 /
#1316000
b101 %
b101 A
#1320000
0!
0=
#1325000
1!
1=
b10 J
b110 I
b110 +
b101 9
b101 3
b110 /
#1326000
b110 %
b110 A
#1330000
0!
0=
#1335000
1!
1=
b11 J
b111 I
b111 +
b110 9
b110 3
b111 /
#1336000
b111 %
b111 A
#1340000
0!
0=
#1345000
1!
1=
b100 J
b1000 I
b1000 +
b111 9
b111 3
b1000 /
#1346000
b1000 %
b1000 A
#1350000
0!
0=
#1355000
1!
1=
b101 J
b1001 I
b1001 +
b1000 9
b1000 3
b1001 /
#1356000
b1001 %
b1001 A
#1360000
0!
0=
#1365000
1!
1=
b110 J
b1010 I
b1010 +
b1001 9
b1001 3
b1010 /
#1366000
b1010 %
b1010 A
#1370000
0!
0=
#1375000
1!
1=
b111 J
b1011 I
b1011 +
b1010 9
b1010 3
b1011 /
#1376000
b1011 %
b1011 A
#1380000
0!
0=
#1385000
1!
1=
b1000 J
b1100 I
b1100 +
b1011 9
b1011 3
b1100 /
#1386000
b1100 %
b1100 A
#1390000
0!
0=
#1395000
1!
1=
b1001 J
b1101 I
b1101 +
b1100 9
b1100 3
b1101 /
#1396000
b1101 %
b1101 A
#1400000
0!
0=
#1405000
1!
1=
b1010 J
b1110 I
b1110 +
b1101 9
b1101 3
b1110 /
#1406000
b1110 %
b1110 A
#1410000
0!
0=
#1415000
1!
1=
b1011 J
b1111 I
b1111 +
1G
1)
b1110 9
b1110 3
b1111 /
#1416000
b1111 %
b1111 A
#1420000
0!
0=
#1425000
1!
1=
b1100 J
b10000 I
b10000 +
1E
0G
1'
0)
0B
b1111 9
17
b1111 3
0-
1.
b0 /
#1426000
b0 %
1$
0#
0?
1@
b0 A
1C
#1430000
0!
0=
#1435000
1!
1=
b0 D
b1101 K
b1111 I
b0 &
b1111 +
0E
1G
0'
1)
b10000 9
07
15
b0 3
12
01
1-
0.
b11000011 /
#1436000
b11000011 %
0$
1#
1?
0@
b11000011 A
0C
1B
#1440000
0!
0=
#1445000
1!
1=
b1101 J
b10000 I
b10000 +
1E
0G
1'
0)
0B
b1111 9
17
05
b0 4
b11000011 3
02
11
1.
b11010100 /
#1446000
b11010100 %
1$
1@
b11010100 A
1C
#1450000
0!
0=
#1455000
1!
1=
b1 D
b1110 K
b1111 I
b1 &
b1111 +
0E
1G
0'
1)
1B
b10000 9
07
15
b11010100 3
12
0-
b0 /
#1456000
b0 %
0#
0?
b0 A
0B
#1460000
0!
0=
#1465000
1!
1=
b10 D
b1111 K
b1110 I
b10 &
b1110 +
0G
0)
b1111 9
17
05
b1 4
b0 3
01
b0 /
#1470000
0!
0=
#1475000
1!
1=
b11 D
b0 K
b1101 I
b11 &
b1101 +
b1110 9
07
b10 4
b0 /
#1480000
0!
0=
#1485000
1!
1=
b100 D
b1 K
b1100 I
b100 &
b1100 +
b1101 9
b11 4
b0 /
#1490000
0!
0=
#1495000
1!
1=
b101 D
b10 K
b1011 I
b101 &
b1011 +
b1100 9
b100 4
b0 /
#1500000
0!
0=
#1505000
1!
1=
b110 D
b11 K
b1010 I
b110 &
b1010 +
b1011 9
b101 4
b0 /
#1510000
0!
0=
#1515000
1!
1=
b111 D
b100 K
b1001 I
b111 &
b1001 +
b1010 9
b110 4
b0 /
#1520000
0!
0=
#1525000
1!
1=
b1000 D
b101 K
b1000 I
b1000 &
b1000 +
b1001 9
b111 4
b0 /
#1530000
0!
0=
#1535000
1!
1=
b1001 D
b110 K
b111 I
b1001 &
b111 +
b1000 9
b1000 4
b0 /
#1540000
0!
0=
#1545000
1!
1=
b1010 D
b111 K
b110 I
b1010 &
b110 +
b111 9
b1001 4
b0 /
#1550000
0!
0=
#1555000
1!
1=
b1011 D
b1000 K
b101 I
b1011 &
b101 +
b110 9
b1010 4
b0 /
#1560000
0!
0=
#1565000
1!
1=
b1100 D
b1001 K
b100 I
b1100 &
b100 +
b101 9
b1011 4
b0 /
#1570000
0!
0=
#1575000
1!
1=
b1101 D
b1010 K
b11 I
b1101 &
b11 +
b100 9
b1100 4
b0 /
#1580000
0!
0=
#1585000
1!
1=
b1110 D
b1011 K
b10 I
b1110 &
b10 +
b11 9
b1101 4
b0 /
#1590000
0!
0=
#1595000
1!
1=
b1111 D
b1100 K
b1 I
b1111 &
b1 +
1H
1*
b10 9
b1110 4
b0 /
#1600000
0!
0=
#1605000
1!
1=
b11000011 D
b1101 K
b0 I
b11000011 &
b0 +
1F
0H
1(
0*
0C
b1 9
18
b1111 4
b0 /
#1610000
0!
0=
#1615000
1!
1=
b0 9
08
16
b11000011 4
b101000 /
#1616000
b101000 %
b101000 A
#1620000
0!
0=
#1625000
1!
1=
b101000 3
b10110001 /
#1626000
b10110001 %
b10110001 A
#1630000
0!
0=
#1635000
1!
1=
b10110001 3
1-
b111000 /
#1636000
b111000 %
1#
1?
b111000 A
1B
#1640000
0!
0=
#1645000
1!
1=
b1110 J
b1 I
b1 +
0F
1H
0(
1*
1C
b111000 3
11
0.
b1011011 /
#1646000
b1011011 %
0$
0@
b1011011 A
0C
#1650000
0!
0=
#1655000
1!
1=
b1111 J
b10 I
b10 +
0H
0*
b1 9
18
06
b1011011 3
02
0-
1.
b1111101 /
#1656000
b1111101 %
1$
0#
0?
1@
b1111101 A
1C
0B
#1660000
0!
0=
#1665000
1!
1=
b111000 D
b1110 K
b1 I
b111000 &
b1 +
1H
1*
b10 9
08
b1111101 3
12
01
1-
0.
b101000 /
#1666000
b101000 %
0$
1#
1?
0@
b101000 A
0C
1B
#1670000
0!
0=
#1675000
1!
1=
b0 J
b10 I
b10 +
0H
0*
b1 9
18
b111000 4
b101000 3
02
11
0-
b1011101 /
#1676000
b1011101 %
0#
0?
b1011101 A
0B
#1680000
0!
0=
#1685000
1!
1=
b10 9
08
b1011101 3
01
1-
1.
b110011 /
#1686000
b110011 %
1$
1#
1?
1@
b110011 A
1C
1B
#1690000
0!
0=
#1695000
1!
1=
b1 J
b1011011 D
b1111 K
b1011011 &
b110011 3
12
11
0.
b1011010 /
#1696000
b1011010 %
0$
0@
b1011010 A
0C
#1700000
0!
0=
#1705000
1!
1=
b10 J
b11 I
b11 +
b1011011 4
b1011010 3
02
b100111 /
#1706000
b100111 %
b100111 A
#1710000
0!
0=
#1715000
1!
1=
b11 J
b100 I
b100 +
b11 9
b100111 3
b1111100 /
#1716000
b1111100 %
b1111100 A
#1720000
0!
0=
#1725000
1!
1=
b100 J
b101 I
b101 +
b100 9
b1111100 3
b1011001 /
#1726000
b1011001 %
b1011001 A
#1730000
0!
0=
#1735000
1!
1=
b101 J
b110 I
b110 +
b101 9
b1011001 3
0-
1.
b10111111 /
#1736000
b10111111 %
1$
0#
0?
1@
b10111111 A
1C
0B
#1740000
0!
0=
#1745000
1!
1=
b101000 D
b0 K
b101 I
b101000 &
b101 +
b110 9
b10111111 3
12
01
0.
b10110100 /
#1746000
b10110100 %
0$
0@
b10110100 A
0C
#1750000
0!
0=
#1755000
1!
1=
b101 9
b101000 4
b10110100 3
02
1-
b100101 /
#1756000
b100101 %
1#
1?
b100101 A
1B
#1760000
0!
0=
#1765000
1!
1=
b110 J
b110 I
b110 +
b100101 3
11
0-
b101001 /
#1766000
b101001 %
0#
0?
b101001 A
0B
#1770000
0!
0=
#1775000
1!
1=
b110 9
b101001 3
01
1-
b10101100 /
#1776000
b10101100 %
1#
1?
b10101100 A
1B
#1780000
0!
0=
#1785000
1!
1=
b111 J
b111 I
b111 +
b10101100 3
11
1.
b10111 /
#1786000
b10111 %
1$
1@
b10111 A
1C
#1790000
0!
0=
#1795000
1!
1=
b1000 J
b110011 D
b1 K
b110011 &
b111 9
b10111 3
12
0-
b1010110 /
#1796000
b1010110 %
0#
0?
b1010110 A
0B
#1800000
0!
0=
#1805000
1!
1=
b1011010 D
b10 K
b110 I
b1011010 &
b110 +
b110011 4
b1010110 3
01
0.
b10000000 /
#1806000
b10000000 %
0$
0@
b10000000 A
0C
#1810000
0!
0=
#1815000
1!
1=
b110 9
b1011010 4
b10000000 3
02
1.
b100001 /
#1816000
b100001 %
1$
1@
b100001 A
1C
#1820000
0!
0=
#1825000
1!
1=
b100111 D
b11 K
b101 I
b100111 &
b101 +
b100001 3
12
1-
b1100010 /
#1826000
b1100010 %
1#
1?
b1100010 A
1B
#1830000
0!
0=
#1835000
1!
1=
b1001 J
b1111100 D
b100 K
b1111100 &
b101 9
b100111 4
b1100010 3
11
b1 /
#1836000
b1 %
b1 A
#1840000
0!
0=
#1845000
1!
1=
b1010 J
b1011001 D
b101 K
b1011001 &
b1111100 4
b1 3
0.
b1010010 /
#1846000
b1010010 %
0$
0@
b1010010 A
0C
#1850000
0!
0=
#1855000
1!
1=
b1011 J
b110 I
b110 +
b1011001 4
b1010010 3
02
1.
b10011011 /
#1856000
b10011011 %
1$
1@
b10011011 A
1C
#1860000
0!
0=
#1865000
1!
1=
b1100 J
b100101 D
b110 K
b100101 &
b110 9
b10011011 3
12
0.
b1110011 /
#1866000
b1110011 %
0$
0@
b1110011 A
0C
#1870000
0!
0=
#1875000
1!
1=
b1101 J
b111 I
b111 +
b100101 4
b1110011 3
02
0-
1.
b1010000 /
#1876000
b1010000 %
1$
0#
0?
1@
b1010000 A
1C
0B
#1880000
0!
0=
#1885000
1!
1=
b10101100 D
b111 K
b110 I
b10101100 &
b110 +
b111 9
b1010000 3
12
01
1-
b11100110 /
#1886000
b11100110 %
1#
1?
b11100110 A
1B
#1890000
0!
0=
#1895000
1!
1=
b1110 J
b10111 D
b1000 K
b10111 &
b110 9
b10101100 4
b11100110 3
11
0.
b10100011 /
#1896000
b10100011 %
0$
0@
b10100011 A
0C
